…
Let’s start with a for loop.

``` r
output = vector("list", length = 100)

for (i in 1:100) {
  
  output[[i]] = sim_mean_sd(samp_size = 30)
  
}

bind_rows(output)
```

    ## # A tibble: 100 x 2
    ##     mean    sd
    ##    <dbl> <dbl>
    ##  1  2.35  3.19
    ##  2  4.16  2.97
    ##  3  3.85  4.37
    ##  4  3.14  3.56
    ##  5  3.87  3.80
    ##  6  2.34  3.89
    ##  7  2.78  3.98
    ##  8  2.55  4.53
    ##  9  1.73  4.53
    ## 10  3.16  3.25
    ## # … with 90 more rows
…
